{"frames": [

{
	"filename": "animation_water_01.png",
	"frame": {"x":1,"y":1,"w":148,"h":148},
	"rotated": false,
	"trimmed": true,
	"spriteSourceSize": {"x":6,"y":6,"w":148,"h":148},
	"sourceSize": {"w":160,"h":160}
},
{
	"filename": "animation_water_02.png",
	"frame": {"x":151,"y":1,"w":148,"h":148},
	"rotated": false,
	"trimmed": true,
	"spriteSourceSize": {"x":6,"y":6,"w":148,"h":148},
	"sourceSize": {"w":160,"h":160}
},
{
	"filename": "animation_water_03.png",
	"frame": {"x":301,"y":1,"w":148,"h":148},
	"rotated": false,
	"trimmed": true,
	"spriteSourceSize": {"x":6,"y":6,"w":148,"h":148},
	"sourceSize": {"w":160,"h":160}
},
{
	"filename": "animation_water_04.png",
	"frame": {"x":451,"y":1,"w":148,"h":148},
	"rotated": false,
	"trimmed": true,
	"spriteSourceSize": {"x":6,"y":6,"w":148,"h":148},
	"sourceSize": {"w":160,"h":160}
},
{
	"filename": "animation_water_05.png",
	"frame": {"x":1,"y":151,"w":148,"h":148},
	"rotated": false,
	"trimmed": true,
	"spriteSourceSize": {"x":6,"y":6,"w":148,"h":148},
	"sourceSize": {"w":160,"h":160}
},
{
	"filename": "animation_water_06.png",
	"frame": {"x":151,"y":151,"w":148,"h":148},
	"rotated": false,
	"trimmed": true,
	"spriteSourceSize": {"x":6,"y":6,"w":148,"h":148},
	"sourceSize": {"w":160,"h":160}
},
{
	"filename": "animation_water_07.png",
	"frame": {"x":301,"y":151,"w":148,"h":148},
	"rotated": false,
	"trimmed": true,
	"spriteSourceSize": {"x":6,"y":6,"w":148,"h":148},
	"sourceSize": {"w":160,"h":160}
},
{
	"filename": "animation_water_08.png",
	"frame": {"x":451,"y":151,"w":148,"h":148},
	"rotated": false,
	"trimmed": true,
	"spriteSourceSize": {"x":6,"y":6,"w":148,"h":148},
	"sourceSize": {"w":160,"h":160}
},
{
	"filename": "animation_water_09.png",
	"frame": {"x":1,"y":301,"w":148,"h":148},
	"rotated": false,
	"trimmed": true,
	"spriteSourceSize": {"x":6,"y":6,"w":148,"h":148},
	"sourceSize": {"w":160,"h":160}
},
{
	"filename": "animation_water_10.png",
	"frame": {"x":151,"y":301,"w":148,"h":148},
	"rotated": false,
	"trimmed": true,
	"spriteSourceSize": {"x":6,"y":6,"w":148,"h":148},
	"sourceSize": {"w":160,"h":160}
},
{
	"filename": "animation_water_11.png",
	"frame": {"x":301,"y":301,"w":148,"h":148},
	"rotated": false,
	"trimmed": true,
	"spriteSourceSize": {"x":6,"y":6,"w":148,"h":148},
	"sourceSize": {"w":160,"h":160}
},
{
	"filename": "animation_water_12.png",
	"frame": {"x":451,"y":301,"w":148,"h":148},
	"rotated": false,
	"trimmed": true,
	"spriteSourceSize": {"x":6,"y":6,"w":148,"h":148},
	"sourceSize": {"w":160,"h":160}
}],
"meta": {
	"app": "http://www.codeandweb.com/texturepacker",
	"version": "1.0",
	"image": "animation_water.png",
	"format": "RGBA8888",
	"size": {"w":600,"h":450},
	"scale": "1",
	"smartupdate": "$TexturePacker:SmartUpdate:3874387b042278254b53923a8bd3936c:f878f70abf88719d01e257537cdfb6f1:915b9e2c60291fd5f1d6c786f7274850$"
}
}
